Data _e1TLcboMEeqXM4R0zcbmSg {
  modelName "SecondDataModel"
  ConcreteType _ncYWAboMEeqXM4R0zcbmSg at 280,160 size 140,55 {
  	name "Type2"
  	PrimitiveAttribute _nmi-oLoMEeqXM4R0zcbmSg at 5,32 size 130,18 {
  		dataType Text
  		name "attr1"
  		isList false
  	}
  	-Inheritance-> _tX6gUboMEeqXM4R0zcbmSg  decorate "" at (0,0) {
  		id _ufi2wboMEeqXM4R0zcbmSg
  	}
  }
  
  ReferencedType _tX6gUboMEeqXM4R0zcbmSg at 282,31 size 140,55 {
  	name "Type"
  	libraryComponentUID "_brndsboMEeqXM4R0zcbmSg"
  	ReferencedPrimitiveAttribute _tX8VgboMEeqXM4R0zcbmSg at 5,32 size 130,18 {
  		dataType Text
  		name "attr12"
  		isList false
  		libraryComponentUID "_b7qr4LoMEeqXM4R0zcbmSg"
  	}
  }
}
