Data _tH3fEMwMEeWZVvvwxpYu8A {
  modelName "Data"
  ConcreteType _dh6BYMwNEeWZVvvwxpYu8A at 90,60 size 111,55 {
  	name "ConcreteUser"
  	UserAttribute _fPY24MwNEeWZVvvwxpYu8A at 5,32 size 101,18 {
  		name "baseUser"
  		isList false
  		dataType _UdYs4MwNEeWZVvvwxpYu8A
  		oppositeAttribute _fOkXgMwNEeWZVvvwxpYu8A
  	}
  }
  
  UserType _UdYs4MwNEeWZVvvwxpYu8A at 74,190 size 143,145 {
  	name "BaseUser"
  	UserAttribute _fOkXgMwNEeWZVvvwxpYu8A at 5,32 size 133,18 {
  		name "concreteUser"
  		isList true
  		dataType _dh6BYMwNEeWZVvvwxpYu8A
  		oppositeAttribute _fPY24MwNEeWZVvvwxpYu8A
  	}
  	
  	PrimitiveAttribute _YIIgUMwNEeWZVvvwxpYu8A at 5,50 size 133,18 {
  		dataType Text
  		name "password"
  		isList false
  	}
  	
  	PrimitiveAttribute _3QnzMM46EeWKGIrSDzlNog at 5,68 size 133,18 {
  		dataType File
  		name "image"
  		isList false
  	}
  	
  	PrimitiveAttribute _VE6ToM5BEeWKGIrSDzlNog at 5,86 size 133,18 {
  		dataType Text
  		name "firstName"
  		isList false
  	}
  	
  	PrimitiveAttribute _WYcYEM5BEeWKGIrSDzlNog at 5,104 size 133,18 {
  		dataType Text
  		name "lastName"
  		isList false
  	}
  	
  	PrimitiveAttribute _1aiCkG_QEeaqHezD6-M0AA at 5,122 size 133,18 {
  		dataType Text
  		name "username"
  		isList false
  	}
  	-UserAssociation-> _dh6BYMwNEeWZVvvwxpYu8A  decorate "Text" at (4,-8) decorate "Text" at (12,-7) {
  		id _fOZ_cMwNEeWZVvvwxpYu8A
  		isHidden false
  		sourceAttr _fPY24MwNEeWZVvvwxpYu8A
  		targetAttr _fOkXgMwNEeWZVvvwxpYu8A
  	}
  }
  
  ConcreteType _CDaLUVeFEemS9eizVL9usQ at 680,240 size 140,55 {
  	name "TestTypeParent"
  	PrimitiveAttribute _K9sJQVeGEemjyqt8fiqFzg at 5,32 size 130,18 {
  		dataType Text
  		name "text"
  		isList false
  	}
  }
  
  ConcreteType _CaOI0VeFEemS9eizVL9usQ at 600,460 size 140,30 {
  	name "TestTypeChild1"
  	-Inheritance-> _CDaLUVeFEemS9eizVL9usQ  decorate "" at (0,0) {
  		id _KRYSUVeFEemS9eizVL9usQ
  	}
  }
  
  ConcreteType _C0Y8UVeFEemS9eizVL9usQ at 800,460 size 140,30 {
  	name "TestTypeChild2"
  	-Inheritance-> _CDaLUVeFEemS9eizVL9usQ  decorate "" at (0,0) {
  		id _KNvTAVeGEemjyqt8fiqFzg
  	}
  }
  
  AbstractType _lNyUwVeNEemF18azK0awrA at 1210,250 size 140,55 {
  	name "AbstractParent"
  	PrimitiveAttribute _oSBh0VeNEemF18azK0awrA at 5,32 size 130,18 {
  		dataType Text
  		name "attr1"
  		isList false
  	}
  }
  
  ConcreteType _lq0PAVeNEemF18azK0awrA at 1210,460 size 140,30 {
  	name "ChildOfAbstract"
  	-Inheritance-> _lNyUwVeNEemF18azK0awrA  decorate "" at (0,0) {
  		id _nnQGgVeNEemF18azK0awrA
  	}
  }
}
